[
    {
        "model": "shipments.shipment",
        "pk": 1,
        "fields": {
            "track_number": "PL3993485EE",
            "email_responsible": "aeciovc@gmail.com",
            "location": "Tallinn - Estonia",
            "carrier": 1,
            "created_at": "2019-09-24 15:34:00"
        }
    },
    {
        "model": "shipments.shipment",
        "pk": 2,
        "fields": {
            "track_number": "WE3993485EE",
            "email_responsible": "aecio.costa@kuehne-nagel.com",
            "location": "Tallinn - Estonia",
            "carrier": 2,
            "created_at": "2019-09-24 18:40:00"
        }
    }
]